Plotting statistical significance and difference in values • ggasym
…
            2019-02-24

      Source: vignettes/enrichment_example.Rmd
      enrichment_example.Rmd

library(dplyr)
library(ggplot2)
library(stringr)
library(ggasym)

For this example, I will be using the included enrichment_data tibble. It is printed below and further information can be found in the documentation (?enrichment_data).

enrichment_data

## # A tibble: 166 x 4
##    hallmark                           comparison       estimate adj.p.value
##    <chr>                              <chr>               <dbl>       <dbl>
##  1 Activating Invasion and Metastasis tissue A-tissue…  -0.282     7.03e- 1
##  2 Activating Invasion and Metastasis tissue C-tissue…  -0.504     1.31e- 1
##  3 Activating Invasion and Metastasis tissue D-tissue…  -1.69      0.      
##  4 Activating Invasion and Metastasis tissue E-tissue…  -0.382     4.00e- 1
##  5 Activating Invasion and Metastasis tissue F-tissue…  -1.37      5.49e-10
##  6 Activating Invasion and Metastasis tissue G-tissue…  -1.91      4.80e-10
##  7 Activating Invasion and Metastasis tissue C-tissue…  -0.222     9.01e- 1
##  8 Activating Invasion and Metastasis tissue D-tissue…  -1.41      6.14e-11
##  9 Activating Invasion and Metastasis tissue E-tissue…  -0.0992    9.98e- 1
## 10 Activating Invasion and Metastasis tissue F-tissue…  -1.09      3.78e- 7
## # … with 156 more rows
…
enrich_data <- enrichment_data %>%
    mutate(tissue_1 = str_split_fixed(comparison, "-", 2)[, 1],
           tissue_2 = str_split_fixed(comparison, "-", 2)[, 2])

I also need to calculate the \(-\log_{10} \text{q-value}\), first setting any \(0\) values to \(10^{-6}\).

enrich_data <- enrich_data %>%
    mutate(neg_log10 = - log10(adj.p.value)) 

Here are the results of the above mutations

enrich_data %>% select(hallmark, tissue_1, tissue_2, estimate, neg_log10)

## # A tibble: 166 x 5
##    hallmark                           tissue_1 tissue_2 estimate  neg_log10
##    <chr>                              <chr>    <chr>       <dbl>      <dbl>
##  1 Activating Invasion and Metastasis tissue A tissue B  -0.282    0.153   
##  2 Activating Invasion and Metastasis tissue C tissue B  -0.504    0.882   
##  3 Activating Invasion and Metastasis tissue D tissue B  -1.69   Inf       
##  4 Activating Invasion and Metastasis tissue E tissue B  -0.382    0.398   
##  5 Activating Invasion and Metastasis tissue F tissue B  -1.37     9.26    
##  6 Activating Invasion and Metastasis tissue G tissue B  -1.91     9.32    
##  7 Activating Invasion and Metastasis tissue C tissue A  -0.222    0.0453  
##  8 Activating Invasion and Metastasis tissue D tissue A  -1.41    10.2     
##  9 Activating Invasion and Metastasis tissue E tissue A  -0.0992   0.000806
## 10 Activating Invasion and Metastasis tissue F tissue A  -1.09     6.42    
## # … with 156 more rows
…
