Gene Coexpression • ggasym
…
(Anybody familiar with general molecular biology can skip the Introduction.)

Genes in an organism’s genome are expressed to produce RNA which can have a function of their own and/or be used to create protein. Each cell expresses the thousands of genes at different rates, controlling the function of the cell. Often, biologists are interested in the levels to understand differences between two or more biological groups (such as normal and tumor cells). Further, measuring correlation, that is the similarity in the change of expression of two genes across samples, suggests an interaction between the two genes’ functions.

Data Preparation

I have gene expression (from a microarray) data of the livers of 48 mice, half of which were fed a high-fat diet (making two groups: “High” and “Normal”). I want to find genes that correlated in their change in expression across the samples.

I began by reading in the gene expression data of the livers of mice fed a high fat diet for up to 24 weeks (GEO GDS6248). I prepared the downloaded data before hand to keep this vignette simple, but you can see what I did on this package’s GitHub repository at “data-raw/prepare_mouse_gene_expr.R”. The major filtration step I completed beforehand was to keep only the top 25% most variable genes to prevent domination of the correlation analysis by genes with little to no change in expression (and to decrease the size of the RData file).

We can access the data table containing the diets of each mouse in the mouse_diet tibble.

mouse_diet
#> # A tibble: 48 x 2
#>    mouse_id  diet  
#>    <chr>     <chr> 
#>  1 GSM994790 Normal
#>  2 GSM994791 Normal
#>  3 GSM994792 Normal
#>  4 GSM994793 Normal
#>  5 GSM994794 Normal
#>  6 GSM994795 Normal
#>  7 GSM994796 Normal
#>  8 GSM994797 Normal
#>  9 GSM994798 Normal
#> 10 GSM994799 Normal
#> # … with 38 more rows

And the gene expression data is held in the tibble moexpr_data. The first column holds the gene name and all of the other columns are the gene expression for each mouse.

moexpr_data
#> # A tibble: 4,649 x 49
#>    gene  GSM994790 GSM994791 GSM994792 GSM994793 GSM994794 GSM994795
#>    <chr>     <dbl>     <dbl>     <dbl>     <dbl>     <dbl>     <dbl>
#>  1 Aacs       8.82      8.55      9.06     10.5      10.7       9.26
#>  2 Aadac      8.29      8.71      8.48      8.58      8.33      8.35
#>  3 Aadat      8.47      8.33      8.37      8.21      8.21      8.13
#>  4 Aagab      9.93      9.93     10.1       9.96     10.1      10.0 
#>  5 Aamdc      9.57      9.55     10.0       9.89     10.3      10.3 
#>  6 Aard       7.48      7.47      7.77      7.99      8.00      8.05
#>  7 Aars      11.7      11.7      11.8      11.8      11.9      11.8 
#>  8 Aars…      8.86      8.78      8.99      8.67      8.82      8.60
#>  9 Aasdh      9.38      9.49      9.32      9.46      9.51      9.59
#> 10 Aass       9.31      9.81      9.51      8.23      8.33      8.70
#> # … with 4,639 more rows, and 42 more variables: GSM994796 <dbl>,
#> #   GSM994797 <dbl>, GSM994798 <dbl>, GSM994799 <dbl>, GSM994800 <dbl>,
#> #   GSM994801 <dbl>, GSM994802 <dbl>, GSM994803 <dbl>, GSM994804 <dbl>,
#> #   GSM994805 <dbl>, GSM994806 <dbl>, GSM994807 <dbl>, GSM994808 <dbl>,
#> #   GSM994809 <dbl>, GSM994810 <dbl>, GSM994811 <dbl>, GSM994812 <dbl>,
#> #   GSM994813 <dbl>, GSM994814 <dbl>, GSM994815 <dbl>, GSM994816 <dbl>,
#> #   GSM994817 <dbl>, GSM994818 <dbl>, GSM994819 <dbl>, GSM994820 <dbl>,
#> #   GSM994821 <dbl>, GSM994822 <dbl>, GSM994823 <dbl>, GSM994824 <dbl>,
#> #   GSM994825 <dbl>, GSM994826 <dbl>, GSM994827 <dbl>, GSM994828 <dbl>,
…
